Project1
…
## # A tibble: 4 x 4
##   congress mean_agreepct sd_agreepct var_agreepct
##   <chr>            <dbl>       <dbl>        <dbl>
## 1 114              0.557       0.411        0.169
## 2 115              0.713       0.320        0.102
## 3 116              0.483       0.418        0.175
## 4 117              0.423       0.448        0.201

cttotal %>% group_by(state) %>% summarize(mean_pa = mean(predicted_agree, 
    na.rm = T), sd_pa = sd(predicted_agree, na.rm = T), quantile_pa = quantile(predicted_agree, 
    na.rm = T))

## # A tibble: 235 x 4
## # Groups:   state [47]
##    state mean_pa  sd_pa quantile_pa
##    <chr>   <dbl>  <dbl>       <dbl>
##  1 AL      0.882 0.0724       0.799
##  2 AL      0.882 0.0724       0.823
##  3 AL      0.882 0.0724       0.886
##  4 AL      0.882 0.0724       0.943
##  5 AL      0.882 0.0724       0.960
##  6 AR      0.798 0.172        0.450
##  7 AR      0.798 0.172        0.733
##  8 AR      0.798 0.172        0.853
##  9 AR      0.798 0.172        0.928
## 10 AR      0.798 0.172        0.949
## # … with 225 more rows
…
cttotal <- cttotal %>% pivot_wider(names_from = "Location", values_from = "Values")

Because my data was already tidy, I decided to untidy it with pivot_longer to split up the agree_pct and predicted_agree variables to “Location” and “Values”. From my newly created columns, I re-tidied them using pivot_wider to remake the variables I had untidied.

library(cluster)

cttotal %>% ungroup() %>% mutate(gmeanSL = mean(agree_pct), gmeanPW = mean(predicted_agree)) %>% 
    group_by(gmeanPW, gmeanSL, party) %>% summarize(meanSL = mean(agree_pct), 
    meanPW = mean(predicted_agree), WSS = sum((agree_pct - meanSL)^2 + 
        (predicted_agree - meanPW)^2), BSS = sum((meanSL - gmeanSL)^2 + 
        (meanPW - gmeanPW)^2)) %>% ungroup() %>% summarize(BSS = sum(BSS), 
    WSS = sum(WSS))

## # A tibble: 1 x 2
##     BSS   WSS
##   <dbl> <dbl>
## 1  180.  60.7

cttotal_num <- cttotal2 %>% scale()

kmeans1 <- kmeans(cttotal2[!is.na(cttotal2)], 3)
kmeans1

## K-means clustering with 3 clusters of sizes 3338, 1511, 807
## 
## Cluster means:
##          [,1]
## 1   0.5441259
## 2 108.6909332
## 3  40.9830827
## 
## Clustering vector:
##   [1] 2 2 2 2 2 2 2 2 2 2 2 2 2 2 2 2 2 2 2 2 2 2 2 2 2 2 2 2 2 2 2 2 2 2 2 2 2
##  [38] 2 2 2 2 2 2 2 2 2 2 2 2 2 2 2 2 2 2 2 2 2 2 2 2 2 2 2 2 2 2 2 2 2 2 2 2 2
##  [75] 2 2 2 2 2 2 2 2 2 2 2 2 2 2 2 2 2 2 2 2 2 2 2 2 2 2
##  [ reached getOption("max.print") -- omitted 5556 entries ]
…
